C:\myworkbench\mymentoring\java_foundations_202102\projects_ee\jee_enterprise_hwent3\src\main\java\com\psybergate\grad2021\jeefnds\enterprise\hwent3\resource\CustomerResource.java
C:\myworkbench\mymentoring\java_foundations_202102\projects_ee\jee_enterprise_hwent3\src\main\java\com\psybergate\grad2021\jeefnds\enterprise\hwent3\framework\ControllerMethod.java
C:\myworkbench\mymentoring\java_foundations_202102\projects_ee\jee_enterprise_hwent3\src\main\java\com\psybergate\grad2021\jeefnds\enterprise\hwent3\resource\AuditResource.java
C:\myworkbench\mymentoring\java_foundations_202102\projects_ee\jee_enterprise_hwent3\src\main\java\com\psybergate\grad2021\jeefnds\enterprise\hwent3\domain\Customer.java
C:\myworkbench\mymentoring\java_foundations_202102\projects_ee\jee_enterprise_hwent3\src\main\java\com\psybergate\grad2021\jeefnds\enterprise\hwent3\service\CustomerService.java
C:\myworkbench\mymentoring\java_foundations_202102\projects_ee\jee_enterprise_hwent3\src\main\java\com\psybergate\grad2021\jeefnds\enterprise\hwent3\resource\impl\CustomerResourceImpl.java
C:\myworkbench\mymentoring\java_foundations_202102\projects_ee\jee_enterprise_hwent3\src\main\java\com\psybergate\grad2021\jeefnds\enterprise\hwent3\domain\Audit.java
C:\myworkbench\mymentoring\java_foundations_202102\projects_ee\jee_enterprise_hwent3\src\main\java\com\psybergate\grad2021\jeefnds\enterprise\hwent3\framework\DispatcherServlet.java
C:\myworkbench\mymentoring\java_foundations_202102\projects_ee\jee_enterprise_hwent3\src\main\java\com\psybergate\grad2021\jeefnds\enterprise\hwent3\service\CustomerServiceImpl.java
C:\myworkbench\mymentoring\java_foundations_202102\projects_ee\jee_enterprise_hwent3\src\main\java\com\psybergate\grad2021\jeefnds\enterprise\hwent3\controller\CustomerController.java
C:\myworkbench\mymentoring\java_foundations_202102\projects_ee\jee_enterprise_hwent3\src\main\java\com\psybergate\grad2021\jeefnds\enterprise\hwent3\resource\impl\AuditResourceImpl.java
